^D:\SWINBURNE\SEMESTER4\GAMES_PROGRAMMING\MYFOLDER\BLOCK2\SPIKE13\SPIKE13\UNITTESTING\DEBUG\STDAFX.OBJ|D:\SWINBURNE\SEMESTER4\GAMES_PROGRAMMING\MYFOLDER\BLOCK2\SPIKE13\SPIKE13\UNITTESTING\DEBUG\UNITTEST1.OBJ
D:\SWINBURNE\SEMESTER4\GAMES_PROGRAMMING\MYFOLDER\BLOCK2\SPIKE13\SPIKE13\DEBUG\UNITTESTING.ILK
D:\SWINBURNE\SEMESTER4\GAMES_PROGRAMMING\MYFOLDER\BLOCK2\SPIKE13\SPIKE13\DEBUG\UNITTESTING.DLL
D:\SWINBURNE\SEMESTER4\GAMES_PROGRAMMING\MYFOLDER\BLOCK2\SPIKE13\SPIKE13\DEBUG\UNITTESTING.PDB
